{
    "busStopHasShelter": {
        "name": "quests.busStopHasShelter",
        "description": "quests.busStopHasShelter.description",
        "importance": 1700,
        "querySolution": {
            "1": {
                "query": {
                    "elementType": "node",
                    "matchingTags": {
                        "highway": "bus_stop"
                    },
                    "absentTags": ["shelter"],
                    "presentTags": [],
                    "nonMatchingTags": []
                },
                "solution": {
                    "type": "YesNo",
                    "question": "quests.busStopHasShelter.question",
                    "destinationKey": "shelter",
                    "yesValue": "yes",
                    "noValue": "no"
                }
            }
        },
        "colour": "#3e00ff"
    },
    "busStopHasTactilePaving": {
        "name": "quests.busStopHasTactilePaving",
        "description": "quests.busStopHasTactilePaving.description",
        "importance": 1900,
        "querySolution": {
            "1": {
                "query": {
                    "elementType": "node",
                    "matchingTags": {
                        "highway": "bus_stop"
                    },
                    "absentTags": ["tactile_paving"],
                    "presentTags": [],
                    "nonMatchingTags": []
                },
                "solution": {
                    "type": "YesNo",
                    "question": "quests.busStopHasTactilePaving.question",
                    "destinationKey": "tactile_paving",
                    "yesValue": "yes",
                    "noValue": "no"
                }
            }
        },
        "colour": "#388800"
    },
    "busStopWheelchairAccessible": {
        "name": "quests.busStopWheelchairAccessible",
        "description": "quests.busStopWheelchairAccessible.description",
        "importance": 1850,
        "querySolution": {
            "1": {
                "query": {
                    "elementType": "node",
                    "matchingTags": {
                        "highway": "bus_stop"
                    },
                    "absentTags": ["wheelchair"],
                    "presentTags": [],
                    "nonMatchingTags": []
                },
                "solution": {
                    "type": "YesNo",
                    "question": "quests.busStopWheelchairAccessible.question",
                    "destinationKey": "wheelchair",
                    "yesValue": "yes",
                    "noValue": "no"
                }
            }
        },
        "colour": "#388800"
    },
    "busStopHasBin": {
        "name": "quests.busStopHasBin",
        "description": "quests.busStopHasBin.description",
        "importance": 1200,
        "querySolution": {
            "1": {
                "query": {
                    "elementType": "node",
                    "matchingTags": {
                        "highway": "bus_stop"
                    },
                    "absentTags": ["bin"],
                    "presentTags": [],
                    "nonMatchingTags": []
                },
                "solution": {
                    "type": "YesNo",
                    "question": "quests.busStopHasBin.question",
                    "destinationKey": "bin",
                    "yesValue": "yes",
                    "noValue": "no"
                }
            }
        },
        "colour": "#3e00ff"
    },
    "busStopHasSign": {
        "name": "quests.busStopHasSign",
        "description": "quests.busStopHasSign.description",
        "importance": 1300,
        "querySolution": {
            "1": {
                "query": {
                    "elementType": "node",
                    "matchingTags": {
                        "highway": "bus_stop"
                    },
                    "absentTags": ["flag"],
                    "presentTags": [],
                    "nonMatchingTags": []
                },
                "solution": {
                    "type": "YesNo",
                    "question": "quests.busStopHasSign.question",
                    "destinationKey": "flag",
                    "yesValue": "yes",
                    "noValue": "no"
                }
            }
        },
        "colour": "#3e00ff"
    },
    "crossingHasLightSignals": {
        "name": "quests.crossingHasLightSignals",
        "description": "quests.crossingHasLightSignals.description",
        "importance": 1750,
        "querySolution": {
            "1": {
                "query": {
                    "elementType": "node",
                    "matchingTags": {
                        "highway": "crossing",
                        "crossing": "marked"
                    },
                    "absentTags": [],
                    "presentTags": [],
                    "nonMatchingTags": []
                },
                "solution": {
                    "type": "YesNo",
                    "question": "quests.crossingHasLightSignals.question",
                    "destinationKey": "crossing",
                    "yesValue": "traffic_signals",
                    "noValue": "uncontrolled"
                }
            }
        },
        "colour": "#3e00ff"
    },
    "crossingHasIsland": {
        "name": "quests.crossingHasIsland",
        "description": "quests.crossingHasIsland.description",
        "importance": 1100,
        "querySolution": {
            "1": {
                "query": {
                    "elementType": "node",
                    "matchingTags": {
                        "highway": "crossing"
                    },
                    "absentTags": ["crossing:island"],
                    "presentTags": [],
                    "nonMatchingTags": []
                },
                "solution": {
                    "type": "YesNo",
                    "question": "quests.crossingHasIsland.question",
                    "destinationKey": "crossing:island",
                    "yesValue": "yes",
                    "noValue": "no"
                }
            }
        },
        "colour": "#3e00ff"
    },
    "crossingHasTactilePaving": {
        "name": "quests.crossingHasTactilePaving",
        "description": "quests.crossingHasTactilePaving.description",
        "importance": 1850,
        "querySolution": {
            "1": {
                "query": {
                    "elementType": "node",
                    "matchingTags": {
                        "highway": "crossing"
                    },
                    "absentTags": ["tactile_paving"],
                    "presentTags": [],
                    "nonMatchingTags": []
                },
                "solution": {
                    "type": "YesNo",
                    "question": "quests.crossingHasTactilePaving.question",
                    "destinationKey": "tactile_paving",
                    "yesValue": "yes",
                    "noValue": "no"
                }
            }
        },
        "colour": "#388800"
    },
    "benchCovered": {
        "name": "quests.benchCovered",
        "description": "quests.benchCovered.description",
        "importance": 1300,
        "querySolution": {
            "1": {
                "query": {
                    "elementType": "node",
                    "matchingTags": {
                        "amenity": "bench",
                    },
                    "absentTags": ["covered"],
                    "presentTags": [],
                    "nonMatchingTags": []
                },
                "solution": {
                    "type": "YesNo",
                    "question": "quests.benchCovered.question",
                    "destinationKey": "covered",
                    "yesValue": "yes",
                    "noValue": "no"
                }
            }
        },
        "colour": "#3e00ff"
    },
    "bicycleParkingCovered": {
        "name": "quests.bicycleParkingCovered",
        "description": "quests.bicycleParkingCovered.description",
        "importance": 1500,
        "querySolution": {
            "1": {
                "query": {
                    "elementType": "node",
                    "matchingTags": {
                        "amenity": "bicycle_parking",
                    },
                    "absentTags": ["covered"],
                    "presentTags": [],
                    "nonMatchingTags": []
                },
                "solution": {
                    "type": "YesNo",
                    "question": "quests.bicycleParkingCovered.question",
                    "destinationKey": "covered",
                    "yesValue": "yes",
                    "noValue": "no"
                }
            }
        },
        "colour": "#3e00ff"
    },
    "bicycleParkingCount": {
        "name": "quests.bicycleParkingCount",
        "description": "quests.bicycleParkingCount.description",
        "importance": 1300,
        "querySolution": {
            "1": {
                "query": {
                    "elementType": "node",
                    "matchingTags": {
                        "amenity": "bicycle_parking"
                    },
                    "absentTags": ["capacity"],
                    "presentTags": [],
                    "nonMatchingTags": [
                        "bicycle_parking!=informal",
                        "bicycle_parking!=floor",
                        "bicycle_parking!=crossbar"
                    ]
                },
                "solution": {
                    "type": "Count",
                    "question": "quests.bicycleParkingCount.question",
                    "destinationKey": "capacity"
                }
            }
        },
        "colour": "#3e00ff"
    },
    "buildingFloors": {
        "name": "quests.buildingFloors",
        "description": "quests.buildingFloors.description",
        "importance": 1100,
        "querySolution": {
            "1": {
                "query": {
                    "elementType": "way",
                    "matchingTags": {
                        "building": "house"
                    },
                    "absentTags": ["building:levels"],
                    "presentTags": [],
                    "nonMatchingTags": []
                },
                "solution": {
                    "type": "Count",
                    "question": "quests.buildingFloors.question",
                    "destinationKey": "building:levels"
                }
            }
        },
        "colour": "#3e00ff"
    },
    "buildingType": {
        "name": "quests.buildingType",
        "description": "quests.buildingType.description",
        "importance": 1100,
        "querySolution": {
            "1": {
                "query": {
                    "elementType": "way",
                    "matchingTags": {
                        "building": "yes"
                    },
                    "absentTags": [],
                    "presentTags": [],
                    "nonMatchingTags": []
                },
                "solution": {
                    "type": "Selection",
                    "question": "quests.buildingType.question",
                    "destinationKey": "building:levels",
                    "entries": {
                        "quests.buildingType.accommodation": [
                            {
                                "display": "quests.buildingType.accommodation.house",
                                "description": "quests.buildingType.accommodation.house.description",
                                "tagValue": "house"
                            },
                            {
                                "display": "quests.buildingType.accommodation.apartments",
                                "description": "quests.buildingType.accommodation.apartments.description",
                                "tagValue": "apartments"
                            },
                            {
                                "display": "quests.buildingType.accommodation.dormitory",
                                "description": "quests.buildingType.accommodation.dormitory.description",
                                "tagValue": "dormitory"
                            },
                            {
                                "display": "quests.buildingType.accommodation.hotel",
                                "description": "quests.buildingType.accommodation.hotel.description",
                                "tagValue": "hotel"
                            },
                            {
                                "display": "quests.buildingType.accommodation.bungalow",
                                "description": "quests.buildingType.accommodation.bungalow.description",
                                "tagValue": "bungalow"
                            },
                            {
                                "display": "quests.buildingType.accommodation.barracks",
                                "description": "quests.buildingType.accommodation.barracks.description",
                                "tagValue": "barracks"
                            }
                        ],
                        "quests.buildingType.commercial": [
                            {
                                "display": "quests.buildingType.commercial.retail",
                                "description": "quests.buildingType.commercial.retail.description",
                                "tagValue": "retail"
                            },
                            {
                                "display": "quests.buildingType.commercial.supermarket",
                                "description": "quests.buildingType.commercial.supermarket.description",
                                "tagValue": "supermarket"
                            },
                            {
                                "display": "quests.buildingType.commercial.office",
                                "description": "quests.buildingType.commercial.office.description",
                                "tagValue": "office"
                            },
                            {
                                "display": "quests.buildingType.commercial.industrial",
                                "description": "quests.buildingType.commercial.industrial.description",
                                "tagValue": "industrial"
                            },
                            {
                                "display": "quests.buildingType.commercial.warehouse",
                                "description": "quests.buildingType.commercial.warehouse.description",
                                "tagValue": "warehouse"
                            },
                            {
                                "display": "quests.buildingType.commercial.kiosk",
                                "description": "quests.buildingType.commercial.kiosk.description",
                                "tagValue": "kiosk"
                            }
                        ],
                        "quests.buildingType.civic": [
                            {
                                "display": "quests.buildingType.civic.service",
                                "description": "quests.buildingType.civic.service.description",
                                "tagValue": "service"
                            },
                            {
                                "display": "quests.buildingType.civic.kindergarten",
                                "description": "quests.buildingType.civic.kindergarten.description",
                                "tagValue": "kindergarten"
                            },
                            {
                                "display": "quests.buildingType.civic.school",
                                "description": "quests.buildingType.civic.school.description",
                                "tagValue": "school"
                            },
                            {
                                "display": "quests.buildingType.civic.college",
                                "description": "quests.buildingType.civic.college.description",
                                "tagValue": "college"
                            },
                            {
                                "display": "quests.buildingType.civic.university",
                                "description": "quests.buildingType.civic.university.description",
                                "tagValue": "university"
                            },
                            {
                                "display": "quests.buildingType.civic.hospital",
                                "description": "quests.buildingType.civic.hospital.description",
                                "tagValue": "hospital"
                            },
                            {
                                "display": "quests.buildingType.civic.toilets",
                                "description": "quests.buildingType.civic.toilets.description",
                                "tagValue": "toilets"
                            },
                            {
                                "display": "quests.buildingType.civic.train_station",
                                "description": "quests.buildingType.civic.train_station.description",
                                "tagValue": "train_station"
                            },
                            {
                                "display": "quests.buildingType.civic.transportation",
                                "description": "quests.buildingType.civic.transportation.description",
                                "tagValue": "transportation"
                            }
                        ],
                        "quests.buildingType.sports": [
                            {
                                "display": "quests.buildingType.sports.stadium",
                                "description": "quests.buildingType.sports.stadium.description",
                                "tagValue": "stadium"
                            },
                            {
                                "display": "quests.buildingType.sports.sports_hall",
                                "description": "quests.buildingType.sports.sports_hall.description",
                                "tagValue": "sports_hall"
                            },
                            {
                                "display": "quests.buildingType.sports.riding_hall",
                                "description": "quests.buildingType.sports.riding_hall.description",
                                "tagValue": "riding_hall"
                            },
                            {
                                "display": "quests.buildingType.sports.grandstand",
                                "description": "quests.buildingType.sports.grandstand.description",
                                "tagValue": "grandstand"
                            }
                        ],
                        "quests.buildingType.cars": [
                            {
                                "display": "quests.buildingType.cars.carport",
                                "description": "quests.buildingType.cars.carport.description",
                                "tagValue": "carport"
                            },
                            {
                                "display": "quests.buildingType.cars.garage",
                                "description": "quests.buildingType.cars.garage.description",
                                "tagValue": "garage"
                            },
                            {
                                "display": "quests.buildingType.cars.parking",
                                "description": "quests.buildingType.cars.parking.description",
                                "tagValue": "parking"
                            }
                        ]
                    }
                }
            }
        },
        "colour": "#3e00ff"
    },
    "stepsHasRamp": {
        "name": "quests.stepsHasRamp",
        "description": "quests.stepsHasRamp.description",
        "importance": 1900,
        "querySolution": {
            "1": {
                "query": {
                    "elementType": "way",
                    "matchingTags": {
                        "highway": "steps"
                    },
                    "absentTags": ["ramp"],
                    "presentTags": [],
                    "nonMatchingTags": []
                },
                "solution": {
                    "type": "Selection",
                    "question": "quests.stepsHasRamp.question",
                    "destinationKey": "ramp",
                    "entries": {
                        "": [
                            {
                                "display": "quests.stepsHasRamp.yes",
                                "description": "quests.stepsHasRamp.yes.description",
                                "tagValue": "yes"
                            },
                            {
                                "display": "quests.stepsHasRamp.separate",
                                "description": "quests.stepsHasRamp.separate.description",
                                "tagValue": "separate"
                            },
                            {
                                "display": "quests.stepsHasRamp.no",
                                "description": "quests.stepsHasRamp.no.description",
                                "tagValue": "no"
                            }
                        ]
                    }
                }
            }
        },
        "colour": "#388800"
    },
    "stepCount": {
        "name": "quests.stepCount",
        "description": "quests.stepCount.description",
        "importance": 1400,
        "querySolution": {
            "1": {
                "query": {
                    "elementType": "way",
                    "matchingTags": {
                        "highway": "steps"
                    },
                    "absentTags": ["step_count"],
                    "presentTags": [],
                    "nonMatchingTags": []
                },
                "solution": {
                    "type": "Count",
                    "question": "quests.stepCount.question",
                    "destinationKey": "step_count"
                }
            }
        },
        "colour": "#3e00ff"
    },
    "stepsRampWheelchairAccessible": {
        "name": "quests.stepsRampWheelchairAccessible",
        "description": "quests.stepsRampWheelchairAccessible.description",
        "importance": 1900,
        "querySolution": {
            "1": {
                "query": {
                    "elementType": "way",
                    "matchingTags": {
                        "highway": "steps",
                        "ramp": "yes"
                    },
                    "absentTags": ["ramp:wheelchair"],
                    "presentTags": [],
                    "nonMatchingTags": []
                },
                "solution": {
                    "type": "Selection",
                    "question": "quests.stepsRampWheelchairAccessible.question",
                    "destinationKey": "ramp:wheelchair",
                    "entries": {
                        "": [
                            {
                                "display": "quests.stepsRampWheelchairAccessible.yes",
                                "description": "quests.stepsRampWheelchairAccessible.yes.description",
                                "tagValue": "yes"
                            },
                            {
                                "display": "quests.stepsRampWheelchairAccessible.no",
                                "description": "quests.stepsRampWheelchairAccessible.no.description",
                                "tagValue": "no"
                            }
                        ]
                    }
                }
            },
            "2": {
                "query": {
                    "elementType": "way",
                    "matchingTags": {
                        "highway": "steps",
                        "ramp": "separate"
                    },
                    "absentTags": ["ramp:wheelchair"],
                    "presentTags": [],
                    "nonMatchingTags": []
                },
                "solution": {
                    "type": "Selection",
                    "question": "quests.stepsRampWheelchairAccessible.question",
                    "destinationKey": "ramp:wheelchair",
                    "entries": {
                        "": [
                            {
                                "display": "quests.stepsRampWheelchairAccessible.yes",
                                "description": "quests.stepsRampWheelchairAccessible.yes.description",
                                "tagValue": "separate"
                            },
                            {
                                "display": "quests.stepsRampWheelchairAccessible.no",
                                "description": "quests.stepsRampWheelchairAccessible.no.description",
                                "tagValue": "no"
                            }
                        ]
                    }
                }
            }
        },
        "colour": "#388800"
    }
}
